{
  "project_info": {
    "project_number": "87590288461",
    "firebase_url": "https://distributiontest-8878d.firebaseio.com",
    "project_id": "distributiontest-8878d",
    "storage_bucket": "distributiontest-8878d.appspot.com"
  },
  "client": [
    {
      "client_info": {
        "mobilesdk_app_id": "1:87590288461:android:294b02e7d7d32343ec7004",
        "android_client_info": {
          "package_name": "com.example.doinglab.distributiontest"
        }
      },
      "oauth_client": [
        {
          "client_id": "87590288461-6gkkasvvcuded854hoo8nrd6t7p0ukpd.apps.googleusercontent.com",
          "client_type": 3
        }
      ],
      "api_key": [
        {
          "current_key": "AIzaSyAdvVsO8Y6gmg3zz1VcSwPlg9VbX_dgm_o"
        }
      ],
      "services": {
        "appinvite_service": {
          "other_platform_oauth_client": [
            {
              "client_id": "87590288461-6gkkasvvcuded854hoo8nrd6t7p0ukpd.apps.googleusercontent.com",
              "client_type": 3
            }
          ]
        }
      }
    }
  ],
  "configuration_version": "1"
}